%YAML 1.1
%TAG !u! tag:unity3d.com,2011:
--- !u!114 &11400000
MonoBehaviour:
  m_ObjectHideFlags: 0
  m_CorrespondingSourceObject: {fileID: 0}
  m_PrefabInternal: {fileID: 0}
  m_GameObject: {fileID: 0}
  m_Enabled: 1
  m_EditorHideFlags: 0
  m_Script: {fileID: 11500000, guid: ff2eca38cb1fbcc45b61781550c0ede9, type: 3}
  m_Name: Level_03
  m_EditorClassIdentifier: 
  scenePath: Level_03
  maxSingleScore: 100
  maxMultiScore: 150
  ballCount: 2
  ballForceRatio: 0.5
